<?xml version="1.0" encoding="utf-8"?>
<!-- Generator: Adobe Illustrator 20.0.0, SVG Export Plug-In . SVG Version: 6.00 Build 0)  -->
<svg version="1.1" id="Layer_1" xmlns="http://www.w3.org/2000/svg" xmlns:xlink="http://www.w3.org/1999/xlink" x="0px" y="0px"
	 viewBox="0 0 134.2 48.2" style="enable-background:new 0 0 134.2 48.2;" xml:space="preserve">
<style type="text/css">
	.st0{fill-rule:evenodd;clip-rule:evenodd;fill:#4A504F;stroke:#FFFFFF;stroke-width:3;stroke-miterlimit:10;}
	.st1{fill-rule:evenodd;clip-rule:evenodd;fill:#FFFFFF;}
	.st2{fill-rule:evenodd;clip-rule:evenodd;fill:#4A504F;}
	.st3{fill-rule:evenodd;clip-rule:evenodd;fill:#036797;}
</style>
<g>
	<path class="st0" d="M132.7,40.4c0,3.5-2.8,6.3-6.3,6.3H7.8c-3.5,0-6.3-2.8-6.3-6.3V7.8c0-3.5,2.8-6.3,6.3-6.3h118.7
		c3.5,0,6.3,2.8,6.3,6.3V40.4z"/>
	<path class="st1" d="M47.5,1.5H7.8c-3.5,0-6.3,2.8-6.3,6.3v32.7c0,3.5,2.8,6.3,6.3,6.3h39.7V1.5z"/>
	<path class="st2" d="M23.3,15.5l-2,2.7c-1,1.3-0.7,3.7,0.7,4.7l3.6,2.6c0.6,0.4,0.7,0.9,0.4,1.4l0.5,0.4l1.8-2.5
		c1.1-1.6,1-3.7-0.6-4.9l-3.7-2.7c-0.4-0.3-0.5-0.8-0.2-1.3L23.3,15.5L23.3,15.5z"/>
	<path class="st2" d="M26.4,3.7l-3,4.2c-1.4,2-0.9,5.3,1,6.8l5,3.7c1,0.7,1.1,2.6,0.4,3.6l0.4,0.3l3.4-4.9c1.5-2.2,1.5-5.4-1-7.2
		l-5.3-3.9c-0.7-0.5-1.1-1.5-0.5-2.3L26.4,3.7L26.4,3.7z"/>
	<path class="st2" d="M18.4,30h4l0.7,2.4c2.2,0,4.4,0,6.6,0l0.7-2.4h4L34,28.2c-5,0-10,0-15,0L18.4,30L18.4,30z"/>
	<path class="st3" d="M39.2,42.6C39.2,42.5,39.2,42.5,39.2,42.6c0-0.1,0-0.2-0.1-0.2c0,0-0.1,0-0.1-0.1c0,0-0.1,0-0.1-0.1
		c-0.1,0-0.1,0-0.1-0.1c0,0-0.1,0-0.1,0c0,0,0,0,0,0c0,0,0,0,0-0.1c0,0,0,0,0-0.1c0,0,0,0,0,0c0,0,0,0,0.1,0c0,0,0.1,0,0.1,0
		c0.1,0,0.1,0,0.1,0c0,0,0.1,0,0.1,0.1l0.1-0.1c0,0-0.1-0.1-0.1-0.1c0,0-0.1,0-0.2,0c0,0-0.1,0-0.1,0c0,0-0.1,0-0.1,0.1
		c0,0,0,0-0.1,0.1s0,0.1,0,0.1c0,0,0,0.1,0,0.1c0,0,0,0.1,0,0.1c0,0,0.1,0,0.1,0.1c0,0,0.1,0,0.1,0.1c0,0,0.1,0,0.1,0
		c0,0,0.1,0,0.1,0c0,0,0,0,0,0.1c0,0,0,0,0,0.1c0,0.1,0,0.1-0.1,0.1c0,0-0.1,0-0.2,0c-0.1,0-0.1,0-0.1,0c0,0-0.1-0.1-0.1-0.1
		l-0.1,0.1c0,0,0.1,0.1,0.2,0.1c0.1,0,0.1,0,0.2,0c0.1,0,0.1,0,0.1,0c0,0,0.1,0,0.1-0.1c0,0,0.1-0.1,0.1-0.1
		C39.2,42.6,39.2,42.6,39.2,42.6L39.2,42.6z"/>
	<path class="st3" d="M40.3,42.8v-1h-0.1l-0.2,0.6c0,0,0,0,0,0c0,0,0,0,0,0.1c0,0,0,0,0,0.1c0,0,0,0,0,0c0,0,0,0,0,0c0,0,0,0,0-0.1
		c0,0,0,0,0-0.1c0,0,0,0,0,0l-0.2-0.6h-0.1v1h0.1v-0.7V42c0,0,0,0,0,0c0,0,0,0,0,0c0,0,0,0,0,0c0,0,0,0,0,0l0.3,0.6l0.3-0.6
		c0,0,0,0,0,0c0,0,0,0,0,0c0,0,0,0,0,0c0,0,0,0,0,0v0.1v0.7H40.3L40.3,42.8z"/>
	<path class="st2" d="M21.9,40.1c-0.2-1.2-0.6-1.4-1.6-1.9c0.7-0.4,1.1-1,1.1-1.9c0-1.7-1.4-2.3-2.9-2.3h-4.2v8.9h4.1
		C20.3,42.9,22.2,42.1,21.9,40.1z M16.3,35.7h2.2c1.4,0,1.4,1.9,0.1,1.9h-2.3V35.7z M18.7,41.2h-2.4v-2h2.4
		C20.5,39.2,20.4,41.2,18.7,41.2z"/>
	<path class="st2" d="M30.2,40.1c-0.2-1.2-0.6-1.4-1.6-1.9c0.7-0.4,1.1-1,1.1-1.9c0-1.7-1.4-2.3-2.9-2.3h-4.2v8.9h4.1
		C28.6,42.9,30.5,42.1,30.2,40.1z M24.6,35.7h2.2c1.4,0,1.4,1.9,0.1,1.9h-2.3V35.7z M27,41.2h-2.4v-2H27
		C28.8,39.2,28.7,41.2,27,41.2z"/>
	<path class="st2" d="M38.4,40.1c-0.2-1.2-0.6-1.4-1.6-1.9c0.7-0.4,1.1-1,1.1-1.9c0-1.7-1.4-2.3-2.9-2.3H31v8.9h4.1
		C36.9,42.9,38.7,42.1,38.4,40.1z M32.9,35.7H35c1.4,0,1.4,1.9,0.1,1.9h-2.3V35.7z M35.3,41.2h-2.4v-2h2.4
		C37,39.2,36.9,41.2,35.3,41.2z"/>
	<g>
		<path class="st1" d="M68,18.9c-0.5-0.6-1.3-1.1-2-1.3c-0.3-0.1-0.7-0.1-1.1-0.1c-0.6,0-1.1,0.1-1.5,0.3c-0.5,0.2-0.9,0.5-1.2,0.9
			c-0.3,0.4-0.6,0.8-0.8,1.3c-0.2,0.5-0.3,1.1-0.3,1.7c0,0.6,0.1,1.2,0.3,1.7c0.2,0.5,0.4,1,0.8,1.3c0.3,0.4,0.7,0.6,1.2,0.8
			c0.5,0.2,1,0.3,1.5,0.3c1,0,2.8-0.6,3.3-1.6L67,23.1c-0.3,0.5-1.4,1-2.1,1c-0.3,0-0.6-0.1-0.9-0.2c-0.3-0.1-0.5-0.3-0.6-0.5
			c-0.2-0.2-0.3-0.5-0.4-0.8c-0.1-0.3-0.1-0.6-0.1-1c0-0.4,0-0.7,0.1-1c0.1-0.3,0.2-0.6,0.4-0.8c0.2-0.2,0.4-0.4,0.6-0.5
			c0.3-0.1,0.5-0.2,0.9-0.2c0.6,0,1.5,0.4,2,1L68,18.9L68,18.9z"/>
		<polygon class="st1" points="91.4,25.7 91.4,24.1 87,24.1 87,22.1 90.5,22.1 90.5,20.6 87,20.6 87,19.2 91.2,19.2 91.2,17.6 
			85.3,17.6 85.3,25.7 91.4,25.7 		"/>
		<path class="st1" d="M99.3,19.7c-0.2-0.5-0.5-0.9-0.9-1.3c-0.4-0.3-0.8-0.6-1.3-0.7c-0.5-0.1-1.1-0.2-1.7-0.2h-2.7v8.1h2.5
			c0.5,0,1.1-0.1,1.6-0.2c0.5-0.2,1-0.4,1.4-0.7c0.4-0.3,0.7-0.7,1-1.3c0.2-0.5,0.4-1.1,0.4-1.8C99.6,20.9,99.5,20.2,99.3,19.7z
			 M97.7,22.6c-0.1,0.3-0.3,0.6-0.5,0.8c-0.2,0.2-0.5,0.4-0.8,0.5c-0.3,0.1-0.7,0.2-1.2,0.2h-0.8v-5h0.9c0.9,0,1.6,0.2,2,0.6
			c0.4,0.4,0.6,1,0.6,1.9C97.8,22,97.8,22.3,97.7,22.6z"/>
		<polygon class="st1" points="103,25.7 103,17.6 101.3,17.6 101.3,25.7 103,25.7 		"/>
		<polygon class="st1" points="110.9,19.2 110.9,17.6 104.3,17.6 104.3,19.2 106.8,19.2 106.8,25.7 108.5,25.7 108.5,19.2 
			110.9,19.2 		"/>
		<path class="st1" d="M126,19.7c-0.2-0.5-0.5-0.9-0.9-1.3c-0.4-0.3-0.8-0.6-1.3-0.7c-0.5-0.1-1.1-0.2-1.7-0.2h-2.7v8.1h2.5
			c0.5,0,1.1-0.1,1.6-0.2c0.5-0.2,1-0.4,1.4-0.7c0.4-0.3,0.7-0.7,1-1.3c0.2-0.5,0.4-1.1,0.4-1.8C126.3,20.9,126.2,20.2,126,19.7z
			 M124.4,22.6c-0.1,0.3-0.3,0.6-0.5,0.8c-0.2,0.2-0.5,0.4-0.8,0.5c-0.3,0.1-0.7,0.2-1.2,0.2h-0.8v-5h0.9c0.9,0,1.6,0.2,2,0.6
			c0.4,0.4,0.6,1,0.6,1.9C124.6,22,124.5,22.3,124.4,22.6z"/>
		<polygon class="st1" points="118.1,25.7 118.1,24.1 113.7,24.1 113.7,22.1 117.3,22.1 117.3,20.6 113.7,20.6 113.7,19.2 
			117.9,19.2 117.9,17.6 112,17.6 112,25.7 118.1,25.7 		"/>
		<polygon class="st1" points="103.8,36.1 103.8,34.5 99.4,34.5 99.4,32.6 103,32.6 103,31 99.4,31 99.4,29.6 103.7,29.6 103.7,28 
			97.7,28 97.7,36.1 103.8,36.1 		"/>
		<path class="st1" d="M75.9,18.9c-0.5-0.6-1.3-1.1-2-1.3c-0.3-0.1-0.7-0.1-1.1-0.1c-0.6,0-1.1,0.1-1.5,0.3
			c-0.5,0.2-0.9,0.5-1.2,0.9c-0.3,0.4-0.6,0.8-0.8,1.3C69.1,20.4,69,21,69,21.6c0,0.6,0.1,1.2,0.3,1.7c0.2,0.5,0.4,1,0.8,1.3
			c0.3,0.4,0.7,0.6,1.2,0.8c0.5,0.2,1,0.3,1.5,0.3c1,0,2.8-0.6,3.3-1.6l-1.2-1.1c-0.3,0.5-1.4,1-2.1,1c-0.3,0-0.6-0.1-0.9-0.2
			c-0.3-0.1-0.5-0.3-0.6-0.5c-0.2-0.2-0.3-0.5-0.4-0.8c-0.1-0.3-0.1-0.6-0.1-1c0-0.4,0-0.7,0.1-1c0.1-0.3,0.2-0.6,0.4-0.8
			c0.2-0.2,0.4-0.4,0.6-0.5c0.3-0.1,0.5-0.2,0.9-0.2c0.6,0,1.5,0.4,2,1L75.9,18.9L75.9,18.9z"/>
		<path class="st1" d="M68.6,32.4c-0.2-0.3-0.5-0.5-0.8-0.7c0.3-0.2,0.5-0.4,0.6-0.6c0.2-0.3,0.2-0.6,0.2-0.9c0-0.7-0.2-1.2-0.7-1.6
			C67.5,28.2,66.8,28,66,28h-3.8v8.1H66c0.4,0,0.8-0.1,1.2-0.2c0.4-0.1,0.7-0.3,0.9-0.5c0.3-0.2,0.5-0.5,0.6-0.8
			c0.1-0.3,0.2-0.7,0.2-1.1C68.9,33.1,68.8,32.7,68.6,32.4z M63.8,29.5h2.1c0.4,0,0.6,0.1,0.8,0.2c0.2,0.1,0.2,0.3,0.2,0.6
			c0,0.2-0.1,0.4-0.2,0.5c-0.1,0.1-0.4,0.2-0.7,0.2h-2.2V29.5z M66.9,34.3c-0.2,0.2-0.5,0.3-0.9,0.3h-2.2v-2.1H66
			c0.8,0,1.2,0.3,1.2,1C67.2,33.9,67.1,34.1,66.9,34.3z"/>
		<path class="st1" d="M76.8,32.6V28h-1.7v4.5c0,0.7-0.2,1.2-0.5,1.5c-0.3,0.4-0.7,0.6-1.3,0.6c-0.5,0-0.9-0.2-1.2-0.6
			c-0.3-0.4-0.5-0.9-0.5-1.6V28H70v4.5c0,0.6,0.1,1.1,0.2,1.6c0.2,0.5,0.4,0.8,0.7,1.2c0.3,0.3,0.6,0.5,1.1,0.7
			c0.4,0.2,0.9,0.2,1.4,0.2c1.1,0,1.9-0.3,2.5-1C76.5,34.6,76.8,33.7,76.8,32.6L76.8,32.6z"/>
		<path class="st1" d="M84.4,33.7c0-0.4-0.1-0.8-0.2-1.1c-0.2-0.3-0.4-0.5-0.6-0.7c-0.3-0.2-0.6-0.3-0.9-0.4c-0.3-0.1-0.7-0.2-1-0.3
			C81.3,31.1,81,31,80.8,31c-0.2-0.1-0.4-0.1-0.5-0.2c-0.1-0.1-0.2-0.1-0.3-0.2C80,30.4,80,30.3,80,30.2c0-0.1,0-0.2,0.1-0.3
			c0-0.1,0.1-0.2,0.2-0.2c0.1-0.1,0.2-0.1,0.4-0.2c0.2,0,0.3-0.1,0.6-0.1c0.4,0,0.7,0.1,1,0.2c0.3,0.1,0.6,0.3,0.9,0.6l1.2-1.1
			c-0.4-0.4-0.8-0.7-1.3-0.9c-0.5-0.2-1.1-0.3-1.7-0.3c-0.4,0-0.8,0.1-1.2,0.2c-0.4,0.1-0.7,0.3-0.9,0.5c-0.3,0.2-0.5,0.5-0.6,0.7
			c-0.2,0.3-0.2,0.6-0.2,1c0,0.4,0.1,0.7,0.2,1c0.1,0.3,0.3,0.5,0.5,0.7c0.2,0.2,0.5,0.3,0.8,0.4c0.3,0.1,0.7,0.2,1.1,0.3
			c0.4,0.1,0.7,0.2,1,0.2c0.2,0.1,0.4,0.2,0.6,0.2c0.1,0.1,0.2,0.2,0.3,0.3c0,0.1,0.1,0.2,0.1,0.3c0,0.3-0.1,0.5-0.4,0.7
			c-0.2,0.1-0.6,0.2-1.1,0.2c-0.4,0-0.8-0.1-1.1-0.2c-0.4-0.1-0.7-0.4-1-0.7l-1.2,1c0.3,0.5,0.8,0.8,1.3,1.1
			c0.6,0.3,1.2,0.4,1.9,0.4c0.6,0,1.1-0.1,1.5-0.2c0.4-0.1,0.7-0.3,1-0.5c0.3-0.2,0.5-0.5,0.6-0.8C84.4,34.4,84.4,34.1,84.4,33.7
			L84.4,33.7z"/>
		<polygon class="st1" points="87.4,36.1 87.4,28 85.8,28 85.8,36.1 87.4,36.1 		"/>
		<path class="st1" d="M95.9,36.1V28h-1.6v3.4c0,0.1,0,0.3,0,0.4c0,0.2,0,0.3,0,0.5c0,0.2,0,0.3,0,0.5c0,0.2,0,0.3,0,0.3
			c-0.1-0.1-0.1-0.2-0.3-0.4c-0.1-0.2-0.2-0.3-0.3-0.5L90.8,28h-1.6v8.1h1.6v-3.6c0-0.1,0-0.3,0-0.4c0-0.2,0-0.3,0-0.5
			c0-0.2,0-0.3,0-0.5c0-0.2,0-0.3,0-0.3c0.1,0.1,0.1,0.2,0.3,0.4c0.1,0.2,0.2,0.3,0.3,0.5l3.1,4.4H95.9L95.9,36.1z"/>
		<path class="st1" d="M110.6,33.7c0-0.4-0.1-0.8-0.2-1.1c-0.2-0.3-0.4-0.5-0.6-0.7c-0.3-0.2-0.6-0.3-0.9-0.4
			c-0.3-0.1-0.7-0.2-1-0.3c-0.3-0.1-0.6-0.1-0.8-0.2c-0.2-0.1-0.4-0.1-0.5-0.2c-0.1-0.1-0.2-0.1-0.3-0.2c-0.1-0.1-0.1-0.2-0.1-0.3
			c0-0.1,0-0.2,0.1-0.3c0-0.1,0.1-0.2,0.2-0.2c0.1-0.1,0.2-0.1,0.4-0.2c0.2,0,0.3-0.1,0.6-0.1c0.4,0,0.7,0.1,1,0.2
			c0.3,0.1,0.6,0.3,0.9,0.6l1.2-1.1c-0.4-0.4-0.8-0.7-1.3-0.9c-0.5-0.2-1.1-0.3-1.7-0.3c-0.4,0-0.8,0.1-1.2,0.2
			c-0.4,0.1-0.7,0.3-0.9,0.5c-0.3,0.2-0.5,0.5-0.6,0.7c-0.2,0.3-0.2,0.6-0.2,1c0,0.4,0.1,0.7,0.2,1c0.1,0.3,0.3,0.5,0.5,0.7
			c0.2,0.2,0.5,0.3,0.8,0.4c0.3,0.1,0.7,0.2,1.1,0.3c0.4,0.1,0.7,0.2,1,0.2c0.2,0.1,0.4,0.2,0.6,0.2c0.1,0.1,0.2,0.2,0.3,0.3
			c0,0.1,0.1,0.2,0.1,0.3c0,0.3-0.1,0.5-0.4,0.7c-0.2,0.1-0.6,0.2-1.1,0.2c-0.4,0-0.8-0.1-1.1-0.2c-0.4-0.1-0.7-0.4-1-0.7l-1.2,1
			c0.3,0.5,0.8,0.8,1.3,1.1c0.6,0.3,1.2,0.4,1.9,0.4c0.6,0,1.1-0.1,1.5-0.2c0.4-0.1,0.7-0.3,1-0.5c0.3-0.2,0.5-0.5,0.6-0.8
			C110.6,34.4,110.6,34.1,110.6,33.7L110.6,33.7z"/>
		<path class="st1" d="M117.8,33.7c0-0.4-0.1-0.8-0.2-1.1c-0.2-0.3-0.4-0.5-0.6-0.7c-0.3-0.2-0.6-0.3-0.9-0.4
			c-0.3-0.1-0.7-0.2-1-0.3c-0.3-0.1-0.6-0.1-0.8-0.2c-0.2-0.1-0.4-0.1-0.5-0.2c-0.1-0.1-0.2-0.1-0.3-0.2c-0.1-0.1-0.1-0.2-0.1-0.3
			c0-0.1,0-0.2,0.1-0.3c0-0.1,0.1-0.2,0.2-0.2c0.1-0.1,0.2-0.1,0.4-0.2c0.2,0,0.3-0.1,0.6-0.1c0.4,0,0.7,0.1,1,0.2
			c0.3,0.1,0.6,0.3,0.9,0.6l1.2-1.1c-0.4-0.4-0.8-0.7-1.3-0.9c-0.5-0.2-1.1-0.3-1.7-0.3c-0.4,0-0.8,0.1-1.2,0.2
			c-0.4,0.1-0.7,0.3-0.9,0.5c-0.3,0.2-0.5,0.5-0.6,0.7c-0.2,0.3-0.2,0.6-0.2,1c0,0.4,0.1,0.7,0.2,1c0.1,0.3,0.3,0.5,0.5,0.7
			c0.2,0.2,0.5,0.3,0.8,0.4c0.3,0.1,0.7,0.2,1.1,0.3c0.4,0.1,0.7,0.2,1,0.2c0.2,0.1,0.4,0.2,0.6,0.2c0.1,0.1,0.2,0.2,0.3,0.3
			c0,0.1,0.1,0.2,0.1,0.3c0,0.3-0.1,0.5-0.4,0.7c-0.2,0.1-0.6,0.2-1.1,0.2c-0.4,0-0.8-0.1-1.1-0.2c-0.4-0.1-0.7-0.4-1-0.7l-1.2,1
			c0.3,0.5,0.8,0.8,1.3,1.1c0.6,0.3,1.2,0.4,1.9,0.4c0.6,0,1.1-0.1,1.5-0.2c0.4-0.1,0.7-0.3,1-0.5c0.3-0.2,0.5-0.5,0.6-0.8
			C117.7,34.4,117.8,34.1,117.8,33.7L117.8,33.7z"/>
		<path class="st1" d="M57.6,17.6h-1.7l-3.3,8.1h1.8l0.7-1.8h3.1l0.7,1.8h1.9L57.6,17.6z M55.7,22.3l0.5-1.5
			c0.1-0.2,0.2-0.5,0.3-0.7c0.1-0.2,0.1-0.4,0.2-0.6c0,0.2,0.1,0.3,0.2,0.6c0.1,0.2,0.2,0.5,0.3,0.7l0.5,1.5H55.7z"/>
		<path class="st1" d="M82.3,22.6c0.5-0.2,1.2-0.6,1.4-1c0.3-0.4,0.4-0.9,0.4-1.5c0-0.4-0.1-0.8-0.2-1.1c-0.2-0.3-0.4-0.6-0.6-0.8
			c-0.3-0.2-0.6-0.4-0.9-0.5c-0.4-0.1-0.7-0.2-1.1-0.2h-4v8.1H79v-2.9l1.5,0.1l1.8,2.8h2L82.3,22.6z M81.2,21.2H79v-2.1h2.2
			c0.4,0,0.7,0.1,0.9,0.2c0.2,0.2,0.3,0.4,0.3,0.8C82.4,20.9,82,21.2,81.2,21.2z"/>
	</g>
</g>
</svg>
