<?xml version="1.0" encoding="UTF-8" standalone="no"?>
<svg width="24px" height="49px" viewBox="0 0 24 49" version="1.1" xmlns="http://www.w3.org/2000/svg" xmlns:xlink="http://www.w3.org/1999/xlink">
    <!-- Generator: Sketch 46.2 (44496) - http://www.bohemiancoding.com/sketch -->
    <title>Stroke 2586 + Stroke 2587 + Stroke 2588</title>
    <desc>Created with Sketch.</desc>
    <defs></defs>
    <g id="Symbols" stroke="none" stroke-width="1" fill="none" fill-rule="evenodd" stroke-linecap="round" stroke-linejoin="round">
        <g id="CTA" transform="translate(-1078.000000, -59.000000)" stroke-width="3">
            <g id="Group-16-Copy">
                <g id="Stroke-2586-+-Stroke-2587-+-Stroke-2588" transform="translate(1080.000000, 60.000000)">
                    <path d="M10,20.5 L10,46.5" id="Stroke-2586" stroke="#5D6C71"></path>
                    <path d="M20,10.5 C20,16.023 15.522,20.5 10,20.5 C4.478,20.5 0,16.023 0,10.5 C0,4.978 4.478,0.5 10,0.5 C15.522,0.5 20,4.978 20,10.5 L20,10.5 Z" id="Stroke-2587" stroke="#8DCF94" fill="#8DCF94"></path>
                    <path d="M10,5.5 C12.762,5.5 15,7.739 15,10.5" id="Stroke-2588" stroke="#FFFFFF"></path>
                </g>
            </g>
        </g>
    </g>
</svg>