<?xml version="1.0" encoding="UTF-8"?>
<svg width="66px" height="66px" viewBox="0 0 66 66" version="1.1" xmlns="http://www.w3.org/2000/svg" xmlns:xlink="http://www.w3.org/1999/xlink">
    <!-- Generator: Sketch 46.2 (44496) - http://www.bohemiancoding.com/sketch -->
    <title>Group</title>
    <desc>Created with Sketch.</desc>
    <defs></defs>
    <g id="Desktop" stroke="none" stroke-width="1" fill="none" fill-rule="evenodd" stroke-linecap="round" stroke-linejoin="round">
        <g id="ForFamilies" transform="translate(-1286.000000, -2085.000000)" stroke="#41A74C" stroke-width="3">
            <g id="DualSection" transform="translate(0.000000, 2034.000000)">
                <g id="Group" transform="translate(1288.000000, 53.000000)">
                    <path d="M43,21 L19,21 C19,26.6581538 19.2432727,34.5304615 26.6363636,37.1538462 L26.6363636,49 L35.3636364,49 L35.3636364,37.1538462 C42.7545455,34.5304615 43,26.6581538 43,21 L43,21 Z" id="Stroke-2602" fill="#8DCF94"></path>
                    <path d="M39,8.5 C39,13.194125 35.194125,17 30.5,17 C25.805875,17 22,13.194125 22,8.5 C22,3.805875 25.805875,0 30.5,0 C35.194125,0 39,3.805875 39,8.5 L39,8.5 Z" id="Stroke-2603" fill="#8DCF94"></path>
                    <path d="M40.6623793,41 C53.0516897,42.4104799 62,46.4588802 62,51.2329779 C62,57.1796042 48.1216207,62 31,62 C13.8773103,62 0,57.1796042 0,51.2329779 C0,46.4578035 8.95151724,42.4094032 21.3451034,41" id="Stroke-2604"></path>
                    <path d="M40.5686111,45.0096463 C46.2105556,45.9389068 50,47.6655949 50,49.6409432 C50,52.6012862 41.4932778,55 31,55 C20.5056667,55 12,52.6012862 12,49.6409432 C12,47.6580922 15.8200556,45.9271168 21.4968333,45" id="Stroke-2605"></path>
                </g>
            </g>
        </g>
    </g>
</svg>